\relax 
\@writefile{toc}{\contentsline {section}{\numberline {1}Introduction}{2}}
\newlabel{sec-1}{{1}{2}}
\@writefile{toc}{\contentsline {subsection}{\numberline {1.1}Tone Discrimination}{2}}
\newlabel{sec-1-1}{{1.1}{2}}
\@writefile{toc}{\contentsline {subsection}{\numberline {1.2}Pitch matching while singing}{3}}
\newlabel{sec-1-2}{{1.2}{3}}
\@writefile{toc}{\contentsline {subsection}{\numberline {1.3}Requirements}{3}}
\newlabel{sec-1-3}{{1.3}{3}}
\@writefile{toc}{\contentsline {subsubsection}{\numberline {1.3.1}Tone Discrimination}{3}}
\newlabel{sec-1-3-1}{{1.3.1}{3}}
\@writefile{toc}{\contentsline {subsection}{\numberline {1.4}Repositories that can be used}{3}}
\newlabel{sec-1-4}{{1.4}{3}}
\@writefile{toc}{\contentsline {subsubsection}{\numberline {1.4.1}Web audio API}{3}}
\newlabel{sec-1-4-1}{{1.4.1}{3}}
\@writefile{toc}{\contentsline {subsubsection}{\numberline {1.4.2}Plotting pitch data gathered from web audio API}{3}}
\newlabel{sec-1-4-2}{{1.4.2}{3}}
\@writefile{toc}{\contentsline {subsubsection}{\numberline {1.4.3}Measure to evaluate correctness of the imitation}{4}}
\newlabel{sec-1-4-3}{{1.4.3}{4}}
\@writefile{toc}{\contentsline {subsection}{\numberline {1.5}Typography of melograph signals}{4}}
\newlabel{sec-1-5}{{1.5}{4}}
